{
  "project_info": {
    "project_number": "275939763903",
    "firebase_url": "https://pdain-97069.firebaseio.com",
    "project_id": "pdain-97069",
    "storage_bucket": "pdain-97069.appspot.com"
  },
  "client": [
    {
      "client_info": {
        "mobilesdk_app_id": "1:275939763903:android:5e02dbb2b70ba3b0ed880a",
        "android_client_info": {
          "package_name": "com.adixsoft.pda"
        }
      },
      "oauth_client": [
        {
          "client_id": "275939763903-39g7o82sb3ho1lnre52lepfmhauhagdt.apps.googleusercontent.com",
          "client_type": 1,
          "android_info": {
            "package_name": "com.adixsoft.pda",
            "certificate_hash": "6da6d45377d2e548e9ab427cb1b47c40dfe2c18e"
          }
        },
        {
          "client_id": "275939763903-oagbasl049vd5es0hia7iqqcuo5n2qmh.apps.googleusercontent.com",
          "client_type": 3
        }
      ],
      "api_key": [
        {
          "current_key": "AIzaSyDQyT54llCghiMCaCEHDuzT_bdG8KXkAA4"
        }
      ],
      "services": {
        "appinvite_service": {
          "other_platform_oauth_client": [
            {
              "client_id": "275939763903-oagbasl049vd5es0hia7iqqcuo5n2qmh.apps.googleusercontent.com",
              "client_type": 3
            }
          ]
        }
      }
    }
  ],
  "configuration_version": "1"
}